…
```r
library(gapminder) 
library(dplyr)
library(tidyverse)
```


```r
gapminder # puxando a base de dados
```

```
## # A tibble: 1,704 x 6
##    country     continent  year lifeExp      pop gdpPercap
##    <fct>       <fct>     <int>   <dbl>    <int>     <dbl>
##  1 Afghanistan Asia       1952    28.8  8425333      779.
##  2 Afghanistan Asia       1957    30.3  9240934      821.
##  3 Afghanistan Asia       1962    32.0 10267083      853.
##  4 Afghanistan Asia       1967    34.0 11537966      836.
##  5 Afghanistan Asia       1972    36.1 13079460      740.
##  6 Afghanistan Asia       1977    38.4 14880372      786.
##  7 Afghanistan Asia       1982    39.9 12881816      978.
##  8 Afghanistan Asia       1987    40.8 13867957      852.
##  9 Afghanistan Asia       1992    41.7 16317921      649.
## 10 Afghanistan Asia       1997    41.8 22227415      635.
## # ... with 1,694 more rows
```
…
```r
# O verbo FILTER permite selecionar uma parte especifica dos dados para realizar sua analise. Deve ser precedido do *%>%* que significa (pegue o que estiver a frente e alimente-o na proxima etapa).

gapminder %>%
  filter (year == 2007)
```

```
## # A tibble: 142 x 6
##    country     continent  year lifeExp       pop gdpPercap
##    <fct>       <fct>     <int>   <dbl>     <int>     <dbl>
##  1 Afghanistan Asia       2007    43.8  31889923      975.
##  2 Albania     Europe     2007    76.4   3600523     5937.
##  3 Algeria     Africa     2007    72.3  33333216     6223.
##  4 Angola      Africa     2007    42.7  12420476     4797.
##  5 Argentina   Americas   2007    75.3  40301927    12779.
##  6 Australia   Oceania    2007    81.2  20434176    34435.
##  7 Austria     Europe     2007    79.8   8199783    36126.
##  8 Bahrain     Asia       2007    75.6    708573    29796.
##  9 Bangladesh  Asia       2007    64.1 150448339     1391.
## 10 Belgium     Europe     2007    79.4  10392226    33693.
## # ... with 132 more rows
```
…
# ARRANGE verbo


```r
# O verbo "arrange" classifica uma tabela baseado em uma variavel (crescente ou decrescente). É muito util quando voce deseja conhecer os valores mais extremos do conjunto do banco de dados.

gapminder %>%
  arrange(gdpPercap)
```

```
## # A tibble: 1,704 x 6
##    country       continent  year lifeExp     pop gdpPercap
##    <fct>         <fct>     <int>   <dbl>   <int>     <dbl>
##  1 Congo, Dem. ~ Africa     2002    45.0  5.54e7      241.
##  2 Congo, Dem. ~ Africa     2007    46.5  6.46e7      278.
##  3 Lesotho       Africa     1952    42.1  7.49e5      299.
##  4 Guinea-Bissau Africa     1952    32.5  5.81e5      300.
##  5 Congo, Dem. ~ Africa     1997    42.6  4.78e7      312.
##  6 Eritrea       Africa     1952    35.9  1.44e6      329.
##  7 Myanmar       Asia       1952    36.3  2.01e7      331 
##  8 Lesotho       Africa     1957    45.0  8.13e5      336.
##  9 Burundi       Africa     1952    39.0  2.45e6      339.
## 10 Eritrea       Africa     1957    38.0  1.54e6      344.
## # ... with 1,694 more rows
```

```r
# Dentro do verbo arrange voce coloca a variavel que orientará a classificacao  
```

Podemos organizar por ordem decrescente via arrange(desc())


```r
gapminder %>%
  arrange(desc(gdpPercap))
```

```
## # A tibble: 1,704 x 6
##    country   continent  year lifeExp     pop gdpPercap
##    <fct>     <fct>     <int>   <dbl>   <int>     <dbl>
##  1 Kuwait    Asia       1957    58.0  212846   113523.
##  2 Kuwait    Asia       1972    67.7  841934   109348.
##  3 Kuwait    Asia       1952    55.6  160000   108382.
##  4 Kuwait    Asia       1962    60.5  358266    95458.
##  5 Kuwait    Asia       1967    64.6  575003    80895.
##  6 Kuwait    Asia       1977    69.3 1140357    59265.
##  7 Norway    Europe     2007    80.2 4627926    49357.
##  8 Kuwait    Asia       2007    77.6 2505559    47307.
##  9 Singapore Asia       2007    80.0 4553009    47143.
## 10 Norway    Europe     2002    79.0 4535591    44684.
## # ... with 1,694 more rows
```
